Proj 3/codes/LRU_Updater_Functional/LRU_Updater_testbench.vcd
$date
     May 25, 2022       18:27:38
$end

$version
 SystemC 2.3.1-Accellera --- May 21 2022 09:38:21
$end

$timescale
     1 ps
$end

$scope module SystemC $end
$var wire    1  aaaaa  clk       $end
$var wire    1  aaaab  rst       $end
$var wire    1  aaaac  completed       $end
$var wire    4  aaaad  newPageBus [3:0]  $end
$var wire    4  aaaae  dataReadBus [3:0]  $end
$var wire    4  aaaaf  addrBus [3:0]  $end
$var wire    4  aaaag  dataWriteBus [3:0]  $end
$var wire    1  aaaah  read       $end
$var wire    1  aaaai  write       $end
$var wire    1  aaaaj  free       $end
$var wire    4  aaaak  pageAddrReg [3:0]  $end
$var wire    4  aaaal  pageTagReg [3:0]  $end
$var wire    1  aaaam  LT_flag       $end
$var wire    1  aaaan  EQ_flag       $end
$upscope $end
$enddefinitions  $end

$comment
All initial values are dumped below at time 0 sec = 0 timescale units.
$end

$dumpvars
0aaaaa
0aaaab
0aaaac
b1001 aaaad
bXXXX aaaae
bXXXX aaaaf
bXXXX aaaag
xaaaah
xaaaai
1aaaaj
bXXXX aaaak
bXXXX aaaal
0aaaam
0aaaan
$end

#20000
1aaaab
b0 aaaaf
b0 aaaag
0aaaah
0aaaai
b0 aaaak
b0 aaaal

#50000
1aaaaa

#100000
0aaaaa

#121000
0aaaab

#150000
1aaaaa

#200000
0aaaaa

#201000
1aaaac

#250000
1aaaaa
0aaaaj

#300000
0aaaaa

#350000
1aaaaa

#400000
0aaaaa

#402000
0aaaac

#450000
1aaaaa

#500000
0aaaaa

#550000
1aaaaa
b1001 aaaak

#600000
0aaaaa

#650000
1aaaaa
b110 aaaae
b1001 aaaaf
1aaaah

#650001
b110 aaaal

#700000
0aaaaa

#750000
1aaaaa
b1000 aaaae
b0 aaaaf

#750001
0aaaam
0aaaan

#800000
0aaaaa

#850000
1aaaaa
b10 aaaae
b1 aaaaf

#850001
1aaaai
1aaaam

#850002
b11 aaaag

#900000
0aaaaa

#950000
1aaaaa
b1101 aaaae
b10 aaaaf

#950001
0aaaai
0aaaam

#1000000
0aaaaa

#1050000
1aaaaa
b100 aaaae
b11 aaaaf

#1050001
1aaaai
1aaaam

#1050002
b101 aaaag

#1100000
0aaaaa

#1150000
1aaaaa
b1111 aaaae
b100 aaaaf

#1150001
0aaaai
0aaaam

#1200000
0aaaaa

#1250000
1aaaaa
b101 aaaae
b101 aaaaf

#1250001
1aaaai
1aaaam

#1250002
b110 aaaag

#1300000
0aaaaa

#1350000
1aaaaa
b1010 aaaae
b110 aaaaf

#1350001
0aaaai
0aaaam

#1400000
0aaaaa

#1450000
1aaaaa
b1100 aaaae
b111 aaaaf

#1500000
0aaaaa

#1550000
1aaaaa
b0 aaaae
b1000 aaaaf

#1550001
1aaaai
1aaaam

#1550002
b1 aaaag

#1600000
0aaaaa

#1650000
1aaaaa
b110 aaaae
b1001 aaaaf

#1650001
0aaaam
1aaaan

#1650002
b0 aaaag

#1700000
0aaaaa

#1750000
1aaaaa
b1110 aaaae
b1010 aaaaf

#1750001
0aaaai
0aaaan

#1800000
0aaaaa

#1850000
1aaaaa
b11 aaaae
b1011 aaaaf

#1850001
1aaaai
1aaaam

#1850002
b100 aaaag

#1900000
0aaaaa

#1950000
1aaaaa
b1001 aaaae
b1100 aaaaf

#1950001
0aaaai
0aaaam

#2000000
0aaaaa

#2050000
1aaaaa
b111 aaaae
b1101 aaaaf

#2100000
0aaaaa

#2150000
1aaaaa
b1011 aaaae
b1110 aaaaf

#2200000
0aaaaa

#2250000
1aaaaa
b1 aaaae
b1111 aaaaf

#2250001
1aaaai
1aaaam

#2250002
b10 aaaag

#2300000
0aaaaa

#2350000
1aaaaa
0aaaah
0aaaai
1aaaaj
0aaaam

#2400000
0aaaaa

#2450000
1aaaaa

#2500000
0aaaaa

#2550000
1aaaaa

#2600000
0aaaaa

#2650000
1aaaaa

#2700000
0aaaaa

#2750000
1aaaaa

#2800000
0aaaaa

#2850000
1aaaaa

#2900000
0aaaaa

#2950000
1aaaaa

#3000000
0aaaaa

#3050000
1aaaaa

#3100000
0aaaaa

#3150000
1aaaaa

#3200000
0aaaaa

#3250000
1aaaaa

#3300000
0aaaaa

#3350000
1aaaaa

#3400000
0aaaaa

#3402000
1aaaac
b11 aaaad

#3450000
1aaaaa
0aaaaj

#3500000
0aaaaa

#3550000
1aaaaa

#3600000
0aaaaa

#3603000
0aaaac

#3650000
1aaaaa

#3700000
0aaaaa

#3750000
1aaaaa
b11 aaaak

#3800000
0aaaaa

#3850000
1aaaaa
b101 aaaae
b11 aaaaf
1aaaah

#3850001
b101 aaaal

#3900000
0aaaaa

#3950000
1aaaaa
b1000 aaaae
b0 aaaaf

#4000000
0aaaaa

#4050000
1aaaaa
b11 aaaae
b1 aaaaf

#4050001
1aaaai
1aaaam

#4050002
b100 aaaag

#4100000
0aaaaa

#4150000
1aaaaa
b1101 aaaae
b10 aaaaf

#4150001
0aaaai
0aaaam

#4200000
0aaaaa

#4250000
1aaaaa
b101 aaaae
b11 aaaaf

#4250001
1aaaai
1aaaan

#4250002
b0 aaaag

#4300000
0aaaaa

#4350000
1aaaaa
b1111 aaaae
b100 aaaaf

#4350001
0aaaai
0aaaan

#4400000
0aaaaa

#4450000
1aaaaa
b110 aaaae
b101 aaaaf

#4500000
0aaaaa

#4550000
1aaaaa
b1010 aaaae
b110 aaaaf

#4600000
0aaaaa

#4650000
1aaaaa
b1100 aaaae
b111 aaaaf

#4700000
0aaaaa

#4750000
1aaaaa
b1 aaaae
b1000 aaaaf

#4750001
1aaaai
1aaaam

#4750002
b10 aaaag

#4800000
0aaaaa

#4850000
1aaaaa
b0 aaaae
b1001 aaaaf

#4850002
b1 aaaag

#4900000
0aaaaa

#4950000
1aaaaa
b1110 aaaae
b1010 aaaaf

#4950001
0aaaai
0aaaam

#5000000
0aaaaa

#5050000
1aaaaa
b100 aaaae
b1011 aaaaf

#5050001
1aaaai
1aaaam

#5050002
b101 aaaag

#5100000
0aaaaa

#5150000
1aaaaa
b1001 aaaae
b1100 aaaaf

#5150001
0aaaai
0aaaam

#5200000
0aaaaa

#5250000
1aaaaa
b111 aaaae
b1101 aaaaf

#5300000
0aaaaa

#5350000
1aaaaa
b1011 aaaae
b1110 aaaaf

#5400000
0aaaaa

#5450000
1aaaaa
b10 aaaae
b1111 aaaaf

#5450001
1aaaai
1aaaam

#5450002
b11 aaaag

#5500000
0aaaaa

#5550000
1aaaaa
0aaaah
0aaaai
1aaaaj
0aaaam

#5600000
0aaaaa

#5650000
1aaaaa

#5700000
0aaaaa

#5750000
1aaaaa

#5800000
0aaaaa

#5850000
1aaaaa

#5900000
0aaaaa

#5950000
1aaaaa

#6000000
0aaaaa

#6050000
1aaaaa

#6100000
0aaaaa

#6150000
1aaaaa

#6200000
0aaaaa

#6250000
1aaaaa

#6300000
0aaaaa

#6350000
1aaaaa

#6400000
0aaaaa

#6450000
1aaaaa

#6500000
0aaaaa

#6550000
1aaaaa

#6600000
0aaaaa

#6603000
1aaaac
b111 aaaad

#6650000
1aaaaa
0aaaaj

#6700000
0aaaaa

#6750000
1aaaaa

#6800000
0aaaaa

#6804000
0aaaac

#6850000
1aaaaa

#6900000
0aaaaa

#6950000
1aaaaa
b111 aaaak

#7000000
0aaaaa

#7050000
1aaaaa
b1100 aaaae
b111 aaaaf
1aaaah

#7050001
b1100 aaaal

#7100000
0aaaaa

#7150000
1aaaaa
b1000 aaaae
b0 aaaaf

#7150001
1aaaai
1aaaam

#7150002
b1001 aaaag

#7200000
0aaaaa

#7250000
1aaaaa
b100 aaaae
b1 aaaaf

#7250002
b101 aaaag

#7300000
0aaaaa

#7350000
1aaaaa
b1101 aaaae
b10 aaaaf

#7350001
0aaaai
0aaaam

#7400000
0aaaaa

#7450000
1aaaaa
b0 aaaae
b11 aaaaf

#7450001
1aaaai
1aaaam

#7450002
b1 aaaag

#7500000
0aaaaa

#7550000
1aaaaa
b1111 aaaae
b100 aaaaf

#7550001
0aaaai
0aaaam

#7600000
0aaaaa

#7650000
1aaaaa
b110 aaaae
b101 aaaaf

#7650001
1aaaai
1aaaam

#7650002
b111 aaaag

#7700000
0aaaaa

#7750000
1aaaaa
b1010 aaaae
b110 aaaaf

#7750002
b1011 aaaag

#7800000
0aaaaa

#7850000
1aaaaa
b1100 aaaae
b111 aaaaf

#7850001
0aaaam
1aaaan

#7850002
b0 aaaag

#7900000
0aaaaa

#7950000
1aaaaa
b10 aaaae
b1000 aaaaf

#7950001
1aaaam
0aaaan

#7950002
b11 aaaag

#8000000
0aaaaa

#8050000
1aaaaa
b1 aaaae
b1001 aaaaf

#8050002
b10 aaaag

#8100000
0aaaaa

#8150000
1aaaaa
b1110 aaaae
b1010 aaaaf

#8150001
0aaaai
0aaaam

#8200000
0aaaaa

#8250000
1aaaaa
b101 aaaae
b1011 aaaaf

#8250001
1aaaai
1aaaam

#8250002
b110 aaaag

#8300000
0aaaaa

#8350000
1aaaaa
b1001 aaaae
b1100 aaaaf

#8350002
b1010 aaaag

#8400000
0aaaaa

#8450000
1aaaaa
b111 aaaae
b1101 aaaaf

#8450002
b1000 aaaag

#8500000
0aaaaa

#8550000
1aaaaa
b1011 aaaae
b1110 aaaaf

#8550002
b1100 aaaag

#8600000
0aaaaa

#8650000
1aaaaa
b11 aaaae
b1111 aaaaf

#8650002
b100 aaaag

#8700000
0aaaaa

#8750000
1aaaaa
0aaaah
0aaaai
1aaaaj
0aaaam

