Proj 3/codes/LRU_Updater/LRU_Updater_testbench.vcd
$date
     May 25, 2022       12:42:09
$end

$version
 SystemC 2.3.1-Accellera --- May 21 2022 09:38:21
$end

$timescale
     1 ps
$end

$scope module SystemC $end
$var wire    4  aaaaa  addrCount [3:0]  $end
$var wire    4  aaaab  pageTagRegOut [3:0]  $end
$var wire    1  aaaac  selAddrCounter       $end
$var wire    1  aaaad  selPageAddr       $end
$var wire    1  aaaae  selZero       $end
$var wire    1  aaaaf  selInc       $end
$var wire    4  aaaag  pageAddrRegOut [3:0]  $end
$var wire    1  aaaah  loadTag       $end
$var wire    1  aaaai  loadPageAddr       $end
$var wire    1  aaaaj  co       $end
$var wire    1  aaaak  rstCounter       $end
$var wire    1  aaaal  cen       $end
$var wire    1  aaaam  isTagLT       $end
$var wire    3  aaaan  p_state [2:0]  $end
$var wire    3  aaaao  n_state [2:0]  $end
$var wire    1  aaaap  compEQ       $end
$var wire    1  aaaaq  compLT       $end
$var wire    4  aaaar  comp_page_TAGS [3:0]  $end
$var wire    4  aaaas  comp_mem_TAGS [3:0]  $end
$var wire    1  aaaat  free       $end
$var wire    1  aaaau  write       $end
$var wire    1  aaaav  read       $end
$var wire    4  aaaaw  dataWriteBus [3:0]  $end
$var wire    4  aaaax  addrBus [3:0]  $end
$var wire    4  aaaay  dataReadBus [3:0]  $end
$var wire    4  aaaaz  newPageBus [3:0]  $end
$var wire    1  aaaba  completed       $end
$var wire    1  aaabb  rst       $end
$var wire    1  aaabc  clk       $end
$upscope $end
$enddefinitions  $end

$comment
All initial values are dumped below at time 0 sec = 0 timescale units.
$end

$dumpvars
bXXXX aaaaa
bXXXX aaaab
0aaaac
0aaaad
0aaaae
0aaaaf
bXXXX aaaag
0aaaah
0aaaai
1aaaaj
0aaaak
0aaaal
0aaaam
bXXX aaaan
b0 aaaao
1aaaap
0aaaaq
bXXXX aaaar
bXXXX aaaas
0aaaat
0aaaau
0aaaav
bXXXX aaaaw
bXXXX aaaax
bXXXX aaaay
b1001 aaaaz
xaaaba
0aaabb
0aaabc
$end

#20000
b0 aaaab
b0 aaaag
b0 aaaan
0aaaap
b0 aaaar
1aaaat
1aaabb

#50000
1aaabc

#100000
0aaabc

#121000
0aaabb

#150000
1aaabc

#200000
0aaabc

#201000
b1 aaaao
1aaaba

#250000
b1 aaaan
0aaaat
1aaabc

#300000
0aaabc

#350000
1aaabc

#400000
0aaabc

#402000
b10 aaaao
b11 aaaaz
0aaaba

#450000
b0 aaaaa
1aaaai
0aaaaj
1aaaak
b10 aaaan
b11 aaaao
1aaabc

#500000
0aaabc

#550000
1aaaad
b11 aaaag
1aaaah
0aaaai
0aaaak
b11 aaaan
b100 aaaao
b100 aaaas
1aaaav
b11 aaaax
b100 aaaay
1aaabc

#600000
0aaabc

#650000
b100 aaaab
1aaaac
0aaaad
0aaaah
1aaaal
b100 aaaan
b100 aaaar
b1000 aaaas
b0 aaaaw
b0 aaaax
b1000 aaaay
1aaabc

#700000
0aaabc

#750000
b1 aaaaa
1aaaaf
1aaaam
1aaaaq
b10 aaaas
1aaaau
b11 aaaaw
b1 aaaax
b10 aaaay
1aaabc

#800000
0aaabc

#850000
b10 aaaaa
0aaaaf
0aaaam
0aaaaq
b1101 aaaas
0aaaau
b1110 aaaaw
b10 aaaax
b1101 aaaay
1aaabc

#900000
0aaabc

#950000
b11 aaaaa
1aaaae
1aaaap
b100 aaaas
1aaaau
b0 aaaaw
b11 aaaax
b100 aaaay
1aaabc

#1000000
0aaabc

#1050000
b100 aaaaa
0aaaae
0aaaap
b1111 aaaas
0aaaau
b100 aaaax
b1111 aaaay
1aaabc

#1100000
0aaabc

#1150000
b101 aaaaa
b101 aaaas
b101 aaaax
b101 aaaay
1aaabc

#1200000
0aaabc

#1250000
b110 aaaaa
b1010 aaaas
b110 aaaax
b1010 aaaay
1aaabc

#1300000
0aaabc

#1350000
b111 aaaaa
b1100 aaaas
b111 aaaax
b1100 aaaay
1aaabc

#1400000
0aaabc

#1450000
b1000 aaaaa
1aaaaf
1aaaam
1aaaaq
b0 aaaas
1aaaau
b1 aaaaw
b1000 aaaax
b0 aaaay
1aaabc

#1500000
0aaabc

#1550000
b1001 aaaaa
0aaaaf
0aaaam
0aaaaq
b110 aaaas
0aaaau
b111 aaaaw
b1001 aaaax
b110 aaaay
1aaabc

#1600000
0aaabc

#1650000
b1010 aaaaa
b1110 aaaas
b1010 aaaax
b1110 aaaay
1aaabc

#1700000
0aaabc

#1750000
b1011 aaaaa
1aaaaf
1aaaam
1aaaaq
b11 aaaas
1aaaau
b100 aaaaw
b1011 aaaax
b11 aaaay
1aaabc

#1800000
0aaabc

#1850000
b1100 aaaaa
0aaaaf
0aaaam
0aaaaq
b1001 aaaas
0aaaau
b1010 aaaaw
b1100 aaaax
b1001 aaaay
1aaabc

#1900000
0aaabc

#1950000
b1101 aaaaa
b111 aaaas
b1101 aaaax
b111 aaaay
1aaabc

#2000000
0aaabc

#2050000
b1110 aaaaa
b1011 aaaas
b1110 aaaax
b1011 aaaay
1aaabc

#2100000
0aaabc

#2150000
b1111 aaaaa
1aaaaf
1aaaaj
1aaaam
b0 aaaao
1aaaaq
b1 aaaas
1aaaau
b10 aaaaw
b1111 aaaax
b1 aaaay
1aaabc

#2200000
0aaabc

#2250000
b0 aaaaa
0aaaac
0aaaaf
0aaaaj
0aaaal
0aaaam
b0 aaaan
1aaaat
0aaaau
0aaaav
b0 aaaax
1aaabc

#2300000
0aaabc

#2350000
1aaabc

#2400000
0aaabc

#2450000
1aaabc

#2500000
0aaabc

#2550000
1aaabc

#2600000
0aaabc

#2650000
1aaabc

#2700000
0aaabc

#2750000
1aaabc

#2800000
0aaabc

#2850000
1aaabc

#2900000
0aaabc

#2950000
1aaabc

#3000000
0aaabc

#3050000
1aaabc

#3100000
0aaabc

#3150000
1aaabc

#3200000
0aaabc

#3250000
1aaabc

#3300000
0aaabc

#3350000
1aaabc

#3400000
0aaabc

#3402000
b1 aaaao
1aaaba

#3450000
b1 aaaan
0aaaat
1aaabc

#3500000
0aaabc

#3550000
1aaabc

#3600000
0aaabc

#3603000
b10 aaaao
b111 aaaaz
0aaaba

#3650000
1aaaai
1aaaak
b10 aaaan
b11 aaaao
1aaabc

#3700000
0aaabc

#3750000
1aaaad
b111 aaaag
1aaaah
0aaaai
0aaaak
b11 aaaan
b100 aaaao
0aaaaq
b1100 aaaas
1aaaav
b111 aaaax
b1100 aaaay
1aaabc

#3800000
0aaabc

#3850000
b1100 aaaab
1aaaac
0aaaad
1aaaaf
0aaaah
1aaaal
1aaaam
b100 aaaan
1aaaaq
b1100 aaaar
b1000 aaaas
1aaaau
b1001 aaaaw
b0 aaaax
b1000 aaaay
1aaabc

#3900000
0aaabc

#3950000
b1 aaaaa
b11 aaaas
b100 aaaaw
b1 aaaax
b11 aaaay
1aaabc

#4000000
0aaabc

#4050000
b10 aaaaa
0aaaaf
0aaaam
0aaaaq
b1101 aaaas
0aaaau
b1110 aaaaw
b10 aaaax
b1101 aaaay
1aaabc

#4100000
0aaabc

#4150000
b11 aaaaa
1aaaaf
1aaaam
1aaaaq
b0 aaaas
1aaaau
b1 aaaaw
b11 aaaax
b0 aaaay
1aaabc

#4200000
0aaabc

#4250000
b100 aaaaa
0aaaaf
0aaaam
0aaaaq
b1111 aaaas
0aaaau
b0 aaaaw
b100 aaaax
b1111 aaaay
1aaabc

#4300000
0aaabc

#4350000
b101 aaaaa
1aaaaf
1aaaam
1aaaaq
b101 aaaas
1aaaau
b110 aaaaw
b101 aaaax
b101 aaaay
1aaabc

#4400000
0aaabc

#4450000
b110 aaaaa
b1010 aaaas
b1011 aaaaw
b110 aaaax
b1010 aaaay
1aaabc

#4500000
0aaabc

#4550000
b111 aaaaa
1aaaae
0aaaaf
0aaaam
1aaaap
0aaaaq
b1100 aaaas
b0 aaaaw
b111 aaaax
b1100 aaaay
1aaabc

#4600000
0aaabc

#4650000
b1000 aaaaa
0aaaae
1aaaaf
1aaaam
0aaaap
1aaaaq
b1 aaaas
b10 aaaaw
b1000 aaaax
b1 aaaay
1aaabc

#4700000
0aaabc

#4750000
b1001 aaaaa
b110 aaaas
b111 aaaaw
b1001 aaaax
b110 aaaay
1aaabc

#4800000
0aaabc

#4850000
b1010 aaaaa
0aaaaf
0aaaam
0aaaaq
b1110 aaaas
0aaaau
b1111 aaaaw
b1010 aaaax
b1110 aaaay
1aaabc

#4900000
0aaabc

#4950000
b1011 aaaaa
1aaaaf
1aaaam
1aaaaq
b100 aaaas
1aaaau
b101 aaaaw
b1011 aaaax
b100 aaaay
1aaabc

#5000000
0aaabc

#5050000
b1100 aaaaa
b1001 aaaas
b1010 aaaaw
b1100 aaaax
b1001 aaaay
1aaabc

#5100000
0aaabc

#5150000
b1101 aaaaa
b111 aaaas
b1000 aaaaw
b1101 aaaax
b111 aaaay
1aaabc

#5200000
0aaabc

#5250000
b1110 aaaaa
b1011 aaaas
b1100 aaaaw
b1110 aaaax
b1011 aaaay
1aaabc

#5300000
0aaabc

#5350000
b1111 aaaaa
1aaaaj
b0 aaaao
b10 aaaas
b11 aaaaw
b1111 aaaax
b10 aaaay
1aaabc

#5400000
0aaabc

#5450000
b0 aaaaa
0aaaac
0aaaaf
0aaaaj
0aaaal
0aaaam
b0 aaaan
1aaaat
0aaaau
0aaaav
b0 aaaax
1aaabc

#5500000
0aaabc

#5550000
1aaabc

#5600000
0aaabc

#5650000
1aaabc

#5700000
0aaabc

#5750000
1aaabc

#5800000
0aaabc

#5850000
1aaabc

#5900000
0aaabc

#5950000
1aaabc

#6000000
0aaabc

#6050000
1aaabc

#6100000
0aaabc

#6150000
1aaabc

#6200000
0aaabc

#6250000
1aaabc

#6300000
0aaabc

#6350000
1aaabc

#6400000
0aaabc

#6450000
1aaabc

#6500000
0aaabc

#6550000
1aaabc

#6600000
0aaabc

#6603000
b1 aaaao
1aaaba

#6650000
b1 aaaan
0aaaat
1aaabc

#6700000
0aaabc

#6750000
1aaabc

#6800000
0aaabc

#6804000
b10 aaaao
0aaaba

#6850000
1aaaai
1aaaak
b10 aaaan
b11 aaaao
1aaabc

#6900000
0aaabc

#6950000
1aaaad
1aaaah
0aaaai
0aaaak
b11 aaaan
b100 aaaao
b0 aaaas
1aaaav
b111 aaaax
b0 aaaay
1aaabc

#7000000
0aaabc

#7050000
b0 aaaab
1aaaac
0aaaad
0aaaah
1aaaal
b100 aaaan
0aaaaq
b0 aaaar
b1001 aaaas
b0 aaaaw
b0 aaaax
b1001 aaaay
1aaabc

#7100000
0aaabc

#7150000
b1 aaaaa
b100 aaaas
b1 aaaax
b100 aaaay
1aaabc

#7200000
0aaabc

#7250000
b10 aaaaa
b1101 aaaas
b10 aaaax
b1101 aaaay
1aaabc

#7300000
0aaabc

#7350000
b11 aaaaa
b1 aaaas
b11 aaaax
b1 aaaay
1aaabc

#7400000
0aaabc

#7450000
b100 aaaaa
b1111 aaaas
b100 aaaax
b1111 aaaay
1aaabc

#7500000
0aaabc

#7550000
b101 aaaaa
b110 aaaas
b101 aaaax
b110 aaaay
1aaabc

#7600000
0aaabc

#7650000
b110 aaaaa
b1011 aaaas
b110 aaaax
b1011 aaaay
1aaabc

#7700000
0aaabc

#7750000
b111 aaaaa
1aaaae
1aaaap
b0 aaaas
1aaaau
b111 aaaax
b0 aaaay
1aaabc

#7800000
0aaabc

#7850000
b1000 aaaaa
0aaaae
0aaaap
b10 aaaas
0aaaau
b1000 aaaax
b10 aaaay
1aaabc

#7900000
0aaabc

#7950000
b1001 aaaaa
b111 aaaas
b1001 aaaax
b111 aaaay
1aaabc

#8000000
0aaabc

#8050000
b1010 aaaaa
b1110 aaaas
b1010 aaaax
b1110 aaaay
1aaabc

#8100000
0aaabc

#8150000
b1011 aaaaa
b101 aaaas
b1011 aaaax
b101 aaaay
1aaabc

#8200000
0aaabc

#8250000
b1100 aaaaa
b1010 aaaas
b1100 aaaax
b1010 aaaay
1aaabc

#8300000
0aaabc

#8350000
b1101 aaaaa
b1000 aaaas
b1101 aaaax
b1000 aaaay
1aaabc

#8400000
0aaabc

#8450000
b1110 aaaaa
b1100 aaaas
b1110 aaaax
b1100 aaaay
1aaabc

#8500000
0aaabc

#8550000
b1111 aaaaa
1aaaaj
b0 aaaao
b11 aaaas
b1111 aaaax
b11 aaaay
1aaabc

#8600000
0aaabc

#8650000
b0 aaaaa
0aaaac
0aaaaj
0aaaal
b0 aaaan
1aaaat
0aaaav
b0 aaaax
1aaabc

